{
  "name": "GoogleMaps",
  "version": "4.2.0",
  "summary": "Google Maps SDK for iOS.",
  "description": "Use the Google Maps SDK for iOS to enrich your app with interactive maps, immersive Street View panoramas, and detailed information from Google's Places database.",
  "homepage": "https://developers.google.com/maps/ios/",
  "license": {
    "text": "If you use the Google Maps SDK for iOS in your application, you must\n      include the attribution text as part of a legal notices section in your\n      application. Including legal notices as an independent menu item, or as\n      part of an \"About\" menu item, is recommended.\n\n      You can get the attribution text by making a call to\n      [GMSServices openSourceLicenseInfo].\n",
    "type": "Copyright"
  },
  "authors": "Google Inc.",
  "platforms": {
    "ios": "10.0"
  },
  "vendored_frameworks": [
    "Frameworks/GoogleMaps.framework"
  ],
  "resources": [
    "Frameworks/GoogleMaps.framework/Versions/A/Resources/GoogleMaps.bundle"
  ],
  "source_files": [

  ],
  "preserve_paths": [
    "CHANGELOG",
    "GoogleMapsSDKDemos",
    "README.md"
  ],
  "frameworks": [
    "Accelerate",
    "AVFoundation",
    "CoreBluetooth",
    "CoreData",
    "CoreLocation",
    "CoreText",
    "GLKit",
    "ImageIO",
    "OpenGLES",
    "QuartzCore",
    "Security",
    "SystemConfiguration",
    "CoreGraphics"
  ],
  "libraries": [
    "icucore",
    "c++",
    "z"
  ],
  "source": {
    "http": "https://bitbucket.org/demanws/googlemapspodspec/raw/3cc19acedfbb96ca1a8c922c050c25ff2a13b1f9/GoogleMaps-4.2.0.tar.gz"
  }
}
